[
{"Job_Title": "Casual Retail Team Members", "Company_Name": "Platypus Shoes", "Company_Rating": "3.799999952316284", "No. of Reviews": "45", "Job_Location": "Casuarina NT", "Job_Description": "Are you a self-expressive TREND SETTER wanting to show off your street style?\nAre you itching to MAKE YOUR MARK within a leading footwear retailer?\nAre you someone who thrives when KICKING GOALS as a team?\n\nIf you answered YES to these questions, you\u2019re the missing ingredient to our revolutionary recipe\u2026\n\nWho we are:\nIf you know your sneakers, you know Platypus Shoes. Housing the world\u2019s most iconic and desired brands, we\u2019re passionate about individuality and telling your story through your sneakers. We\u2019re all sneaker-heads, driving this well-oiled machine, which isn\u2019t slowing down anytime soon\u2026 or ever.\n\nWhat\u2019s in it for you:\nTailored training and mentoring to maximise your growth\nOpportunity to develop and progress up the retail food chain\nWork amongst iconic product with a leading retailer\nWork collaboratively with fellow passionate and dedicated sneakerheads\n\nWhat you\u2019ll bring:\nA strong brand ambassador who loves to offer a genuine customer experience\nThe ultimate team player, eager to achieve results with your team\nA passion for all things sneakers with your own flavour to add to our mix\nAvailability across late night and weekend trade\n\nSo get your fresh kicks ready and APPLY NOW!", "date_posted": " 6 days ago", "Crawl_TimeStamp": "2019-11-10 07:59:51"},
{"Job_Title": "Food Supply Zoo Keeper", "Company_Name": "Department of Tourism, Sport and Culture", "Company_Rating": null, "No. of Reviews": null, "Job_Location": "Berry Springs NT", "Job_Description": "Under the direction of the Senior Veterinary Nurse, maintain the Park\u2019s live food cultures and ensure\n\nfood preparation, storage and culture facilities are kept in a hygienic manner. Undertake stock control and ordering of\n\nfood supplies for Life Science\u2019s sections.\n\nContext Statement: The Territory Wildlife Park is a unique conservation organisation seeking staff who are passionate\n\nabout the Top End\u2019s unique wildlife and beautiful habitats. As a small organisation all staff are required at times to assist\n\nother sections depending on needs. Staff need to be flexible and open to learning.\n\nKey Duties and Responsibilities:\n1. Maintain live food cultures to ensure adequate supply of mice and invertebrates for the Park\u2019s animal collection.\n\n2. Distribute fresh and live food to the various sections.\n\n3. Ensure the food preparation and storage areas and are kept in a hygienic manner.\n\n4. Ensure all foodstuffs are satisfactorily stored for freshness and longevity.\n\n5. Ensure the live food culture facilities are clean and disease free.\n\n6. Assist with other zoo keeping duties, as required. The position needs to be able to assist the Animal Services\n\nSection with general duties relating to quarantined, rescue and rehabilitation animals, endangered species\n\nbreeding programs and providing respite zoo keeping for other sections as required.\n\nSelection Criteria\n\nEssential:\n1. Experience or transferrable skills to undertake live food culturing including breeding and culling of mice, crickets,\n\nmealworms and roaches.\n\n2. Demonstrated experience with stock control including ordering, handling and storage of bulk food stuffs and an\n\nappropriate level of physical fitness for moving bulk food items.\n\n3. Administrative and interpersonal skills to enable effective use of technology and communication to ensure an\n\nefficient and effective procurement and supply service for all zoo keeping requirements across the Park.\n\n4. Possess an understanding of hygienic food preparation and storage.\n\n5. Demonstrated animal handling and general zoo keeping experience.\n\n6. Ability to work effectively as part of a team, apply initiative and quickly acquire new skills and interact effectively\n\nwith people of diverse cultures.\n\n7. Possess a current NT C class driver\u2019s licence and a current Senior First Aid Certificate or ability to obtain.\n\nFurther Information: Employees may be exposed to infectious diseases during their work. The successful applicant\n\nmust be willing to be vaccinated in accordance with the Department\u2019s vaccination policy.", "date_posted": " 12 days ago", "Crawl_TimeStamp": "2019-11-10 07:59:52"},
{"Job_Title": "Crew Member", "Company_Name": "Hungry Jack's", "Company_Rating": "3.4000000953674316", "No. of Reviews": "2122", "Job_Location": "Palmerston NT", "Job_Description": "Variety of shifts available (Fulltime, part time or casual)\nGlobal Brand\nStaff Discount\nAbout Hungry Jack\u2019s\nHungry Jack\u2019s\u00ae is a franchise of the international Burger King Corporation. With over 440 stores in Australia and more than 18,500 employees, we are an iconic Australian brand, delivering quality products within the Quick Service Restaurant industry.\nAbout the role\nWorking closely with the shift manager and as part of the crew team this role plays an integral part in the day to day running of the restaurant. At the forefront of the customer experience, this role involves all facets of restaurant operations including front counter, drive thru & burger room.\n Duties\nProvide high levels of customer service\nPrepare & cook food\nAdhere to safety & hygiene standards\nClean equipment, fittings & restaurant areas\nHandling money & balancing\nWork as a team unit to maintain customer flow\nSkills & experience\nBe courteous & customer focused\nAbility to work quickly with a sense of urgency\nAbility to work as part of a team\nAbility to follow procedures\nBenefits\nFlexible shifts\nStaff discounts\nUniforms provided\nOpportunity to complete nationally accredited qualifications in Retail\nSuccession & development planning\nHow to apply\nIf this sounds like the exciting opportunity you have been looking for then apply now!\nHungry Jack\u2019s is an Equal Opportunity Employer", "date_posted": " 30+ days ago", "Crawl_TimeStamp": "2019-11-10 07:59:52"},
{"Job_Title": "Liquor Team Member", "Company_Name": "BWS", "Company_Rating": "3.700000047683716", "No. of Reviews": "160", "Job_Location": "Palmerston NT 0830", "Job_Description": "At BWS, we are passionate about Beer, Wine and Spirits\n\n\nWhether it's in the way we connect with customers and help them find their special product, or present our stores to be the best place to shop, we believe every BWS team member has a vital role to play.\nWe want your passion for drinks to help drive and create memorable moments for our customers.\nTo best serve our customers, the ideal candidate will have good availability across the day, evenings and weekends.\n\n\nRole of a Liquor Team Member\nOur Team Members play an important role in solving customers\u2019 drinks and special occasions needs through their exceptional passion for product, great customer focus and ability to engage with energy every day. Key responsibilities include:\nActively sharing your passion for products with our customers\nConfidently recommending products to customers which meet their needs\nWorking as a cooperative team member, while helping others to learn\nEnsuring a clean and safe working environment\nCarrying out the physical tasks associated with the role\nUpholding responsible service of alcohol guidelines\n\n\nWhat You Need To Succeed\nAbility to talk with customers confidently and authentically and provide appropriate solutions\nYou don\u2019t need to be a drinks expert to join our team - but you do need to have a genuine interest in expanding your knowledge and bringing your \u2018vibe\u2019 to the team\nWe encourage our team members to own their careers - knowing your purpose is important to be successful in our business\nBeing clear how you can lead and make a difference, in any role in our business", "date_posted": " 5 days ago", "Crawl_TimeStamp": "2019-11-10 07:59:53"},
{"Job_Title": "Front Office Receptionist", "Company_Name": "Voyages Indigenous Tourism Australia", "Company_Rating": "3.5999999046325684", "No. of Reviews": "18", "Job_Location": "Yulara NT", "Job_Description": "\"What ever you do today make sure you take the time to consider your career and the once in a lifetime opportunity to live and work in Australia's Red Centre....\"\n\nVoyages Indigenous Tourism Australia is a unique Australian travel company wholly owned by the Indigenous Land and Sea Corporation (ILSC) offering experience-based holidays in spectacular wilderness locations including Ayers Rock Resort in the iconic Red Centre, Home Valley Station in the Kimberley region of Western Australia and tourism facilities at Mossman Gorge in Tropical North Queensland.\n\nWe are already Iconic, with your help we will be a \u2018World-Class Indigenous Tourism Experience.\u2019\n\nWith 5 individually branded hotel and apartment complexes across Ayers Rock Resort we offer both our guests and employees a multitude of world class Accommodation options.\nThe Ayers Rock Resort complex also includes the Australian Tourism Award winning, Uluru Meeting Place, a campground, the Red Ochre Spa and the award winning Sounds of Silence entered into the Australian Tourism Hall of fame as well as 15 independently branded food and beverage outlets.\n\nAs a member of our Front Office team you will be responsible for not only meeting our guests\u2019 arrival and departure needs, but for bringing our hotel to life, engaging with our guests and providing true outback hospitality. As a Receptionist you will be the front face of our hotel and the first point of contact, on hand to answer our guest\u2019s enquiries, deal with accommodation issues, provide information on our tours and facilities and of course offer services such as foreign currency exchange. You\u2019ll also be responsible for processing hotel charges to guests\u2019 accounts, ensuring bills are accurate and that payments are processed correctly when guests depart.\n\nTo join our Front Office team you will need to have prior experience in either a hotel reception or other similar guest facing role gained within a 4 or 5 star environment. Other reception experience combined with a background within the hospitality industry is highly advantageous but not essential, as is prior experience of working on a remotely operated resort. We would also be particularly interested in candidates that speak Mandarin, Japanese or other major European language. Above all you will need to be a passionate and hardworking individual, with an enthusiastic personality that will enable you connect and converse with our guests who visit us from all over the world, providing them with a comprehensive range of information on what to see and do whilst staying with us.\n\nA National Police Check is a mandatory step of the recruitment process.\n\nIn return we offer you subsidised accommodation, resort discounts, meals on duty, laundered uniform, relocation and vacation bonuses (after qualifying period). Training and study opportunities to further your career are numerous. Staff facilities, including pool, gym, library and resident\u2019s club are available to enjoy in your leisure time. Voyages Ayers Rock Resort offers you a truly unique opportunity to live and work within one of Australia\u2019s most iconic destinations.\n\nVoyages Ayers Rock Resort offers you a truly unique opportunity to live and work within one of Australia\u2019s most iconic destinations.\n\n\"Don't wait for Tomorrow, Discover Today...\"\n\n\nJob: Reception\n\nPrimary Location: Sails in the Desert", "date_posted": " 13 days ago", "Crawl_TimeStamp": "2019-11-10 07:59:53"},
{"Job_Title": "Kmart Alice Springs - Casual Team Members", "Company_Name": "Kmart", "Company_Rating": "3.4000000953674316", "No. of Reviews": "19773", "Job_Location": "Northern Territory", "Job_Description": "Work type: Casual\nLocation: NT Regional\nCategories: Stores - Team Member\nAt Kmart, we are where families come first for the lowest prices on everyday items and our vision is to make everyday living brighter for all our customers, every time and everywhere they shop with us.\n\nAs Australia\u2019s brightest retail star, we have experienced strong success in recent times and have bold plans to significantly expand our business and deliver our vision through new store openings, growth of our online business and expansion into new markets, it\u2019s an exciting time to be part of the Kmart team.\n\nKmart Alice Springs is now looking for Casual Team Members, available to work Weekday evenings and Weekends.\n\nWe are seeking people who are passionate about providing first class customer service, who love being part of a big team and who want to join a great Australian and New Zealand retailer.\n\nWe currently have the following casual positions on offer at our Alice Springs store:\n\nCustomer Service roles, Service areas such as registers, customer service and layby desk,\nBack of house, Decant and Inventory replenishment positions.\n\nNo retail experience? No worries! We will provide you with all the training you need. What we are seeking though is people who love providing great customer service and enjoy team work, so if this sounds like you we would like to hear from you.\n\nWhy Kmart?\n\nYou will really enjoy working with our friendly team and supportive management in an environment that is positive, inclusive and that has a great culture.\n\nAs a Kmart team member you will have access to our fantastic Kmart for YOU benefits program which includes ongoing discounts across Coles, Target, Officeworks and other Wesfarmers retailers plus a wide range of benefits from other program partners including travel, insurance, entertainment and much more (available after 3 months).\n\nWe offer excellent flexibility, the opportunity to work for a hugely successful, values led organization and for those interested in developing a retail management career the opportunity to gain valuable skills and progress your career.\n\nAt Kmart we aim to ensure our teams reflect the diversity of the communities in which we operate.\n\nResume: please note a resume is required to apply (in Word or PDF). We recommend you have your resume ready prior to starting an application. Candidates who don't have any work experience can submit a resume outlining schooling and any extracurricular activities.\n\nPlease !\nAdvertised: 04 Nov 2019 AUS Central Standard Time\nApplications close: 30 Nov 2019 AUS Central Standard Time", "date_posted": " 6 days ago", "Crawl_TimeStamp": "2019-11-10 07:59:53"},
{"Job_Title": "Team members", "Company_Name": "Nando's", "Company_Rating": "4.0", "No. of Reviews": "2174", "Job_Location": "Palmerston NT", "Job_Description": "We're always looking for people with fire in their bellies and passion in their souls. If you're that kind of person, then we'd love you to join our Nando's family!\nDo you have a passion for great food & amazing customer service?\nWork with a fun and engaging restaurant brand\nPermanent full time position with career development opportunities\nVarious locations available\nAustralians are addicted to spicing up their lives with a fix of succulent flame grilled Peri Peri chicken. Besides our legendary chicken, the one thing you'll always find at Nando's is a warm welcome that will make you feel right at home.\n\nWe are looking for a Nandoca (that's what we call our amazing staff) who have fire in their bellies to ignite passion into their job, and help our restaurants deliver exceptional experiences to our customers.\n\nIf you think you've got what it takes then we want you to join our family! Whether it's on the restaurant floor, perfecting the art of grilling chicken, or running the entire restaurant, the opportunities are just as tasty as our famous Peri Peri.\n\nThe Role:\n\nNandocas are the people whose passion and personality bring our restaurants to life. They have loads of fun cooking and serving the best chicken to great customers. In this role, you will learn all the ropes, from serving customers to cooking succulent flame grilled chicken and our other delicious products. There will be cleaning to make sure the restaurant looks amazing as well as learning all about food safety and health and safety requirements.\n\nSkills & Experience Required:\nHave hands-on experience in a restaurant or hospitality environment would be advantageous;\nGreat customer service skills;\nA positive attitude, enthusiastic personality and winning smile; and\nExcellent communication skills;\nAbility to juggle ten things at once;\nImmaculate personal grooming and presentation; and\nKnowledge of food handling and OH&S procedures.\nPride, Passion, Courage, Integrity and Family \u2013 these are the values we live by at Nando's. Above everything, we have fun. Our work hard, play hard attitude keeps our Nandocas fired up for action! It makes for a sizzling experience and we can't wait for you to join our table \u2013 Because if there's one thing we love as much as Peri Peri, Its big happy gatherings!\nWe are not requesting your resume at this stage. Please submit a cover letter briefly outlining your previous experience that is relevant to this role and why you think you are the best person for this.\n\nPlease enter as much information in the track record section of the application to give us a solid overview of your previous work experience. Shortlisted applicants may be requested to submit their resume at a later date.\n\nApplications received without a Cover Letter will not be considered.\n\nYou may know us as the home of PERi-PERi chicken, but we\u2019re a people-first, chicken-second kind of place. Nando\u2019s Australia is an Equal Opportunity Employer who seek to ensure that people are employed, trained and promoted fairly. Nando\u2019s is committed to building a diverse and inclusive workplace. Our aim is to ensure that all our people feel comfortable to bring their whole selves to work.", "date_posted": " 20 days ago", "Crawl_TimeStamp": "2019-11-10 07:59:53"},
{"Job_Title": "Team Member", "Company_Name": "Fuel", "Company_Rating": null, "No. of Reviews": null, "Job_Location": "Casuarina NT 0810", "Job_Description": "Team Member | Euro Garages Australia\n\nLooking to ignite your career? Fuel your future with us!\n\nThis is a part time position offering 10 hours per week. As our site is 24 hours, the successful candidate will need to be available to work all shifts including mornings, days, afternoon, evenings, overnights and weekends.\n\nDynamic, market leading operation\nLead the innovation and customer focus to change the face of Australian Retail Fuel & Convenience\nImmerse yourself within a culture that offers real opportunities for career development\n\nAbout Us\nEG Group was founded in 2001 and is a global leader in fuel and convenience retailing. We currently operate more than 5000 sites globally, employing more than 25,000 people. Being part of such a large international fuel retailer, you will bring to our business the ability to continue to focus 100% on fuel and our convenience offer, access to new opportunities in a new business in Australia, and the ability to bring in best fuel retailing and operational practices from around the world. Our values & business ethos align with partner brands supporting local communities with a view to empowering individuals to grow and contribute to succeed.\n\nAbout You\nEG Group team members are great people. Whether we\u2019re learning new things, seizing the initiative, or winning together, our customers are at the heart of everything we do. If you\u2019re the sort of individual who takes accountability and strives to always do the right thing for each other, our communities, our customers, and our business then we ought to connect.\nAs a Team Member your positive attitude and a desire to go above and beyond for our customers will enhance the customer's experience and make them feel valued.\nYour passion for customer service will enhance their overall experience. Your exceptional multi-tasking abilities and observation skills will enable you to be responsible for the safety and security of the site.\n\nPlease note that EG Group operates and owns the fuel and convenience business previously owned by Woolworths. EG Group is not part of the Woolworths Group. This advertised role is not for and has no connection to the Woolworths Group", "date_posted": " 2 days ago", "Crawl_TimeStamp": "2019-11-10 07:59:54"},
{"Job_Title": "CHRISTMAS CASUAL CUSTOMER ASSISTANT", "Company_Name": "Dusk", "Company_Rating": "3.5", "No. of Reviews": "62", "Job_Location": "Casuarina NT 0810", "Job_Description": "Location: DUSK NT CASUARINA\nPosted on: 07 August 2019\nAn exciting opportunity now exists to join Australia\u2019s largest retailer of candles, home fragrance and home wares this Christmas \u2013 dusk. dusk currently has over 90 stores in Australia and continues to grow. dusk promotes a strong Team culture of excellence, accountability, integrity and having a can-do attitude.\n\nAs a dusk Christmas Customer Assistant, your role is to consistently deliver Customer service excellence, achieve results, be a Team player, a fast stock unpacker and maintain store visual standards.\n\nAs a dusk Christmas Customer Assistant, you are:\nAbout the Customer, always!\nPassionate to exceed our Customer\u2019s expectations EVERY TIME.\nDedicated to being a Team player.\nSelf motivated with a can-do attitude.\nCommitted to continuous improvement.\nEnergetic, positive and ready to have fun!\nAs a dusk Christmas Customer Assistant, you will be carrying out the following:\nConsistently delivering perfect Customer experiences.\nAchieving KPIs.\nExecuting the dusk vision through our products and visual merchandising.\n\nIf you believe you have the skills and drive for this role we would love to hear from you! Ignite your Christmas career today \u2013 Apply now!\nPlease Note: Shifts will not be offered until approximately October 2019.\nThis position is available at:\nDUSK NT CASUARINA\n\nCasuarina Square, 247 Trower Road\n\nCasuarina\n\n0810 NT", "date_posted": " 30+ days ago", "Crawl_TimeStamp": "2019-11-10 07:59:55"},
{"Job_Title": "CHRISTMAS CASUAL CUSTOMER ASSISTANT", "Company_Name": "Dusk", "Company_Rating": "3.5", "No. of Reviews": "62", "Job_Location": "Campbelltown NSW 2560", "Job_Description": "Location: 2 Locations\nPosted on: 07 August 2019\nAn exciting opportunity now exists to join Australia\u2019s largest retailer of candles, home fragrance and home wares this Christmas \u2013 dusk. dusk currently has over 90 stores in Australia and continues to grow. dusk promotes a strong Team culture of excellence, accountability, integrity and having a can-do attitude.\n\nAs a dusk Christmas Customer Assistant, your role is to consistently deliver Customer service excellence, achieve results, be a Team player, a fast stock unpacker and maintain store visual standards.\n\nAs a dusk Christmas Customer Assistant, you are:\nAbout the Customer, always!\nPassionate to exceed our Customer\u2019s expectations EVERY TIME.\nDedicated to being a Team player.\nSelf motivated with a can-do attitude.\nCommitted to continuous improvement.\nEnergetic, positive and ready to have fun!\nAs a dusk Christmas Customer Assistant, you will be carrying out the following:\nConsistently delivering perfect Customer experiences.\nAchieving KPIs.\nExecuting the dusk vision through our products and visual merchandising.\n\nIf you believe you have the skills and drive for this role we would love to hear from you! Ignite your Christmas career today \u2013 Apply now!\nPlease Note: Shifts will not be offered until approximately October 2019.\nThis position is available at:\nDUSK NSW MACARTHUR\n\nMacarthur Square, 200 Gilchrist Drive\n\nCampbelltown\n\n2560 NSW\nDUSK NSW NARELLAN\n\nShop T56 326 Camden Valley Way Narellan NSW 2567\n\nNarellan\n\n2567 NSW", "date_posted": " 30+ days ago", "Crawl_TimeStamp": "2019-11-10 07:59:55"},
{"Job_Title": "Store Person", "Company_Name": "Chemist Warehouse", "Company_Rating": "3.200000047683716", "No. of Reviews": "116", "Job_Location": "Port Macquarie NSW 2444", "Job_Description": "A career with endless opportunities is closer than you think!\n\nFlexible working hours and competitive hourly rates\nFriendly and Supportive team environment\nAttractive staff discounts across all our brands and stores\nOngoing Training and Professional Development\nAre you excited about being a part of Australia\u2019s Largest Retail Pharmacy Group with over 17,000+ employees across more than 500 stores across Australia? Well, look no further! This is the start of that amazing career you have been waiting for!\n\nAbout the Role\n\nThe primary role of the Store Person is to manage all incoming stock deliveries to the store daily. In addition, you are also responsible for:\n\nMarking off large volumes of incoming stock\nLabelling and arranging stock as specified in planograms\nInvoicing and processing credits\nReplenishing stock and maintaining inventory levels\nRepetitive movements and some heavy lifting\nAbout You\n\nPassionate employees are the key to our success. If you possess the following, then we would love to hear from you!\n\nPrevious stock management experience\nExcellent customer service\nStrong communication skills among all stakeholders\nDedicated work ethic\nAbility to work well in a team and autonomously\nWillingness to learn and grow with the business\nEye for detail and accuracy\nThe successful applicant will be required to meet a satisfactory National Criminal History Check outcome.\n\nDue to the amount of applications, only shortlisted candidates will be contacted.\n\nAgencies will not be entertained.\nSelection Criteria Essential: Do you have the right to work in Australia?\nEssential: If successful in gaining this role, are you willing to undergo a National Criminal History Check?\nDesirable: Have you had previous stockroom/replenishment experience? Contact Person Recruitment Services Alternate Contact Person Tiana Pearce Closing Date 06/12/2019\nPlease note that this position will close at 11:45pm on the closing date.\nPlease ensure your application is added before this time as we do not accept late applications.", "date_posted": " 3 days ago", "Crawl_TimeStamp": "2019-11-10 07:59:56"},
{"Job_Title": "Baggage Handlers - Darwin Airport - Qantas Ground Services (QGS)", "Company_Name": "Qantas Ground Services Pty Limited", "Company_Rating": "4.099999904632568", "No. of Reviews": "344", "Job_Location": "Darwin NT", "Job_Description": "Enjoy the challenge of being physically active, working in all weathers\nOpportunities present themselves right across our business, so start building your career with us\nOur inclusive environment brings out the best in all of us\nPermanent part-time and Casual opportunities at Darwin Airport\nAt Qantas, we represent Australia to the world. Our diverse country is known for our spirit, mateship, and a can-do attitude. We\u2019re resilient and strong, and we work hard to keep things moving. We firmly believe that the sky is the limit. Demonstrate the right skill and attitude and we\u2019ll place an incredible amount of trust in you to move on to bigger and better things\nQantas Ground Services is a wholly owned subsidiary of Qantas Airways and we\u2019re responsible for providing ground handling services to the Qantas Group, including baggage handling, ramp services, presentation, ground transport and warehouse freight handling.\nAs a Baggage Handler you will provide baggage handling services to meet the needs of our customers who are travelling across Australia and the globe. Working in a fast-paced, outdoor operational environment, you will load and unload customer baggage, transport it to terminals and aircraft and operate a range of specialised equipment. With safely as our first priority, you\u2019ll read and interpret hazardous material identification labels and aircraft loading manifests as well as baggage and cargo routing tags. You\u2019ll work around aircraft, have plenty of fun, meet amazing people and have experiences like no other.\nYou\u2019ll have \u2013\nA current and valid provisional or full state or territory manual driver\u2019s license\nAvailability to work a 24 hour, 7 day a week rotating shift roster\nRecent experience in a manual handling or physical role, within a fast paced operational environment\nA passion for safety and working within OH&S guidelines at all times\nAbility to work effectively within a team\nA hard working nature and a positive \u2018can do\u2019 attitude\nThe ability to repetitively lift items up to 32 kgs in weight and successfully pass a pre-employment medical\nQantas is an equal opportunity employer, so by coming to work for us, you\u2019ll be part of an organisation that encourages diversity, supports charities and environmental initiatives. We encourage Aboriginal and Torres Strait Islander, and people of all backgrounds to apply.\nBe a part of something special and play your part in the Qantas story \u2013 get in touch today.", "date_posted": " 30+ days ago", "Crawl_TimeStamp": "2019-11-10 07:59:56"},
{"Job_Title": "Fresh Team Member", "Company_Name": "Woolworths Supermarkets", "Company_Rating": "3.799999952316284", "No. of Reviews": "4059", "Job_Location": "Victor Harbour SA 5211", "Job_Description": "Fresh Team Member\n\nFrom meats and cheeses to antipasto, you\u2019ll handle some delicious products.\n\nWoolworths, a job is never just a job.\n\nIt\u2019s the start of something bigger. There are over 128,000 of us, in the biggest cities and the tiniest towns. And each of us have an important role to play. If you have a passion for great customer service, a hunger to make a tangible difference and you\u2019re looking for a place to develop, you could be who we\u2019re looking for.\n\nWho we are\n\nJoining Woolworths Supermarkets means being a part of the wider Woolworths Group, which includes the businesses of BWS, Dan Murphy\u2019s, Big W, Cellarmasters, ALH Group and Countdown (NZ). Which means you won\u2019t have one opportunity with us, you\u2019ll have thousands.\n\nWhy work with us\n\nWhether you\u2019re starting out, already on the way to achieving your goals or at the top of your game, we can help you build a brilliant retail career: If you\u2019ve got goals, we\u2019ve got all you need to succeed. You\u2019ll find over a thousand career options, plus the learning encouragement and support for you to grow. We\u2019re a team that is there for each other. By working alongside people you can learn from, you\u2019ll grow and develop in a fun, supportive environment. Working with a diverse range of people in an industry facing rapid change, you\u2019ll gain real-world experience and grow as a person. Whether it\u2019s making customers smile, supporting Aussie farmers, or playing an important role in your local community, you\u2019ll be doing a little good every day at Woolworths.\n\nWhen you will be needed\n\nThis is a casual role\n\nWhat makes you right for Woolies\n\nThe right attitude is everything....\nGenuine passion for food & shoppingCustomer first mentalityLove of teamwork and growing with othersFlexible and adaptable to changeWilling to work and reliable\n\nJoining the Group\n\nAs an inclusive, team-first company, our people are at the core of everything we do. As our Group continues to evolve, innovate and support our communities, we encourage our team members to do the same with their own careers, by providing ongoing opportunities to grow and make a real difference.\n\nWoolworths Group is backed by some of Australia\u2019s most recognisable retail businesses, there are always new opportunities on the horizon for all our team members, but most importantly, we\u2019re all about creating better experiences \u2013 for our customers and for each other.\n\nWe value flexibility, and encourage our team members to work in ways that meet their work/life commitments and support their wellbeing. Diversity and inclusion are important to us, and we work to create a vibrant and inclusive workforce that\u2019s reflective of the communities we\u2019re in.\n\nLearn more about working with us on LinkedIn or via www.wowcareers.com.au. #LI", "date_posted": " 1 day ago", "Crawl_TimeStamp": "2019-11-10 07:59:56"},
{"Job_Title": "Online Delivery Driver", "Company_Name": "Woolworths Supermarkets", "Company_Rating": "3.799999952316284", "No. of Reviews": "4059", "Job_Location": "Tasmania", "Job_Description": "Online Deliver Driver - Woolworths Kings Meadows\n\nWoolworths Online are seeking motivated, enthusiastic and energetic people for Homeshop Driver position within our Online Shopping Department at Kings Meadows Tasmania Supermarket.\n\nMust be able to work Monday to Sunday between the hours of 5.00am and able to finish at 22.00pm.\n\nWe currently have roles available at the below Stores -\n\nMount Street -\n\nhttps://career10.successfactors.com/sfcareer/jobreqcareer?jobId=352247&company=Woolworths&username=\n\nHobart CBD -\n\nhttps://career10.successfactors.com/sfcareer/jobreqcareer?jobId=352789&company=Woolworths&username=\n\nThe primary objective is to ensure the safe and timely loading, delivery and unloading of groceries to meet agreed delivery schedules. To ensure a high standard of customer service by ensuring there is zero damage to customers\u2019 property. Utilisation of \u2018sign on glass\u2019 technology for all deliveries. To manage SH&E responsibilities in line with the SH&E policy. The customer service agent is to carry out pre shift inspections of vehicles and ensure vehicles are kept clean internally and externally.\n\nTo be considered for the role applicants would need to demonstrate the following skills or criteria:\n\nExceptional customer service\nHave the ability to manage difficult customer situations\nWell developed verbal and written communication skills\nGood interpersonal skills, be friendly and courteous\nAbility to work independently\nWell presented\nAbility to work in a fast paced environment and be able to juggle a number of priorities\nCurrent Full Driver\u2019s Licence", "date_posted": " Today", "Crawl_TimeStamp": "2019-11-10 07:59:58"},
{"Job_Title": "Sales Assistant", "Company_Name": "The Just Group", "Company_Rating": "3.9000000953674316", "No. of Reviews": "55", "Job_Location": "Darwin NT", "Job_Description": "Job no: 693268\nWork type: Part time\nLocation: Darwin\nCategories: Retail - Store\nABOUT PORTMANS\n\nPortmans is the fast, fresh and ever evolving fashion destination for metropolitan girls who like to stay on top. Portmans makes girls feel gorgeous and confident with their sophisticated and contemporary outfits which are always ahead of the trend. Portmans provides the ultimate outfit solutions and is coveted for its sharp tailoring, luxe knits and versatile essentials all topped off with lust-worthy accessories.\n\nABOUT THE ROLE\n\nAs a Part Time Sales Assistant at Portmans Darwin you will be responsible for providing exceptional customer service and styling advice; encouraging customers to return. In order to succeed in this role, you will be passionate about delivering exceptional sales results, have a personal interest in current fashion trends, represent the brand with style and integrity, support and assist the management team in completing operational responsibilities.\n\nDUTIES\n\nProvide a genuine and unique experience for every customer which is in line with the Portmans brand\nWork collaboratively with team members to achieve sales targets\nAssist with stock management and processing\nAssist with setup of store promotions and visual merchandising\nMinimise stock loss following company loss prevention policies and procedures\n\n\nSKILLS & EXPERIENCE\n\nTo succeed in this role, you will:\n\nUnderstand what great customer service looks like\nDemonstrate a strong customer focus with everything you do\nValue integrity and doing things the right way\nEnjoy working with a team in a high energy, fast paced environment\nBe \u2018solutions focused\u2019 when faced with problems\nAwareness of loss prevention, health & safety, visual merchandising, as well as experience in a team environment or fashion retail is favourable but not essential.\n\n\nBENEFITS\n\nAt the Just Group we value high performers and will reward your efforts. When joining our team, you\u2019ll be offered:\n\n In-store coaching and comprehensive training plans with an emphasis on fashion styling\nand service\nInternal career opportunities across 7 brands and over 1,000 retail outlets\n50% staff discount on Portmans amazing product. We attract, retain and motivate high calibre employees. Our outstanding leadership team have developed and nurtured a culture that supports our success. We value speed, integrity, energy, and results. We have a 'can do' culture where employees see the difference they make.\n\n\nCOMPANY CULTURE\n\nWe attract, retain and motivate high calibre employees. Our outstanding leadership team have developed and nurtured a culture that supports our success. We value speed, integrity, energy, and results. We have a 'can do' culture where employees see the difference they make.\n\nPortmans is an integral part of the Just Group, which is a major national fashion retail business. For more information on the Just Group and its\u2019 other 6 brands, visit the Just Group website.\n\nAdvertised: 08 Nov 2019 AUS Central Standard Time", "date_posted": " 2 days ago", "Crawl_TimeStamp": "2019-11-10 07:59:58"},
{"Job_Title": "Part Time Sales Consultant", "Company_Name": "Betts Group", "Company_Rating": "3.0999999046325684", "No. of Reviews": "36", "Job_Location": "Palmerston NT 0830", "Job_Description": "Who we are:\nOne of the most iconic fashion brands in Australia, at Betts we know that nothing completes a look more perfectly than the right pair of shoes, and we know shoes - we\u2019ve been making them since 1892!\nWe are passionate about providing great quality, on-trend shoes and handbags at the best prices and are committed to creating inspiring collections, giving our customers the perfect shoes to step out in style. With over 125 years of shoe making expertise, our passion, knowledge and skill go into every collection.\nWith the original family values still at the heart of the business, Betts continues to run as a family business and we now have over 90 stores Australia-wide.\nThe Role:\nWe pride ourselves on our people and their ability to deliver a fantastic customer experience. Our customers can count on exceptional customer service, styling advice and a memorable shopping experience every time.\nApplicants must be fully available on Mondays, Tuesdays, Wednesdays, Thursdays & Sundays every week, including during study semesters\nIf you love your shoes the same way we do, and can demonstrate the following; then we want to hear from you!\nPrevious experience in retail is desirable.\nProven ability to exceed sales and KPI targets is desirable.\nStrong team player and a 'can do' attitude.\nExcellent communication, conversational and interpersonal skills.\nExceptional grooming and presentation standards.\nIn return, we will reward the successful applicant with:\nVery generous product discounts to indulge in your love of shoes (discounts for your family &friends too!)\nTraining opportunities, as well as ongoing career support.\nIf you are excited about developing your career in retail, take a step in the right direction towards a career with Betts Group!\n\n(Please ensure all files are uploaded in PDF format: To create a PDF from a Word document, click 'save as' and in the 'save as type' drop down box, choose PDF)", "date_posted": " 3 days ago", "Crawl_TimeStamp": "2019-11-10 07:59:59"},
{"Job_Title": "Accomodation Clerk", "Company_Name": "Broadspectrum", "Company_Rating": "3.700000047683716", "No. of Reviews": "494", "Job_Location": "Darwin NT", "Job_Description": "Broadspectrum is an operations, maintenance and construction services organisation, operating globally in the resources, energy, industrial, infrastructure, rail, property and defence sectors. This is a diverse and growing business offering the training, opportunities and support you need to begin and build a successful career.\n\n\nBroadspectrum are currently looking for Fulltime Accommodation Clerk to work on their Defence Base Services Contract at RAAF Darwin. As an Accommodation Clerk, you will be responsible for Managing the Room Booking and Allocation service for all authorised personnel posted, attached to or transiting through the base.\n Responsibilities\nManage the Room Booking and Allocation service for all authorised personnel posted, attached to or transiting through the base, including car parks as required\nManage any dedicated or allocated computer hardware and software including all primary and supplementary programmes\nProvide Occupancy Reports by Rank and Block/Room as directed by the Accommodation Manager\nProvide monthly Occupancy Statistics for both Transit and Living-In rooms as directed by the Domestic Supervisor\nLiaise with the Manager to ensure that accommodation allocated is appropriate to the member\u2019s rank or status and seek direction in the event of unavailability of appropriate level accommodation\nLiaise with the Manager and seek direction in the event of Officer or SNCO accommodation facilities being fully booked\nIssuing keys on arrival and collecting keys upon departure\nMaintain records of key allocations for all Rooms/Buildings keys and ensure that any Missing/Unaccounted for Keys are investigated and reported immediately to the Supervisor\nEnsure Room Inventory and Condition Reports are completed prior to arrival and upon departure\nEnsure that all Furnishings, Fittings and Essential Services in accommodation buildings and rooms are operational one working day prior to, and upon, occupancy\n Manage the day to day security of all unallocated keys, including temporary issues for maintenance or cleaning purposes\n In order to be considered for these positions, you will have the following skills and experience:\nAustralian Driving Licence essential (C Class).\nPrevious experience will be highly regarded.\nDemonstrated ability to work autonomously with a high degree of motivation, energy, initiative and commitment, with the capacity to deal with multiple and often conflicting priorities\nYou must be an Australian Citizen and have the ability to maintain a Defence clearance in order to be eligible for these positions.", "date_posted": " 5 days ago", "Crawl_TimeStamp": "2019-11-10 08:00:00"},
{"Job_Title": "APO Mail Clerk", "Company_Name": "AECOM", "Company_Rating": "3.700000047683716", "No. of Reviews": "4019", "Job_Location": "Alice Springs NT", "Job_Description": "AECOM has a great opportunity for an APO Mail Clerk to support our program in Alice Springs, Australia. The APO Clerk provides clerical assistance to the USG Post master. The APO Clerk will report directly to USG Post Master for day to day tasking but will also report to and be managed by AECOM management.\n\nMinimum Requirements\n\n+ HS Diploma\n\n+ Ability to effectively operate and use Microsoft Office Products (Excel and Word)\n\n+ Ability to operate in a front desk customer service environment.\n\n+ Well-developed interpersonal and communication skills.\n\n+ Ability to work as an individual and as a member of a small team.\n\n+ Must have a Secret security clearance.\n\nPreferred Qualifications\n\n+ Valid, local drivers license is preferred.\n\nWhat We Offer\n\nWhen you join AECOM, you become part of a company that is\n\npioneering the future . Our teams around the world are involved in some of the most cutting-edge and innovative projects and programs of our time, addressing the big challenges of today and shaping the built environment for generations to come. We ensure a workplace that encourages growth, flexibility and creativity, as well as a company culture that champions\n\ninclusion, diversity and overall\n\nemployee well-being through programs supported by company leadership. Our\n\ncore values define who we are, how we act and what we aspire to, which comes down to not only\n\ndelivering a better world , but working to \u201cmake amazing happen\u201d in each neighborhood, community and city we touch. As an Equal Opportunity Employer, we believe in each person\u2019s potential, and we\u2019ll help you reach yours.", "date_posted": " 24 days ago", "Crawl_TimeStamp": "2019-11-10 08:00:00"},
{"Job_Title": "Customer Service Officers", "Company_Name": "Tennis Australia", "Company_Rating": "4.0", "No. of Reviews": "15", "Job_Location": "Marrara NT 0812", "Job_Description": "2163BR\nCustomer Service Officers\n\nExternal Job Ad\n\nJoin a supportive, fresh and dedicated team in a fun and active role\nBe part of an exciting new era for Tennis in the Northern Territory\nWorld class facility at a central Darwin location\nIf you have a passion for our sport and are looking to join a fun and friendly team, then this role is for you! We are currently seeking casual Customer Service Officers to join our team at Tennis World venue in Darwin.\n\nAbout Tennis World, Darwin\nOpening in July 2018, Tennis World Darwin is a world class facility consisting of 14 full-size PlexiCushion tennis courts (including 2 covered courts) and 4 ANZ Tennis Hot Shots purpose-built courts, a double story clubhouse with Cafe, Pro-shop, Function Rooms and Change Rooms along with Tennis NT Headquarters. This state-of-the-art facility opens many doors in growing grassroots participation and offers quality programs and services to the Darwin community.\n\nHours of operations are:\nMonday \u2013 Friday: 12.00pm \u2013 8.30pm\nSaturday: 08.00am \u2013 12.00pm\nSunday: CLOSED\n\nAbout the role\n\nYou will be responsible for:\nProviding friendly, professional and efficient customer service to customers and participants\nEmbracing varying tasks and responsibilities, including assisting with the busy cafe\nAssisting customers with the sale of merchandise and apparel in the Pro Shop\nProcessing court bookings and data entry where required\nLiaising with customers to promote Tennis World Memberships\nAbout you\n\nWhat you will bring to the role:\nAvailability and flexibility to work evenings and weekends\nThe proven ability to assist a diverse range of people with a commitment to exceptional customer service\nDemonstrated experience within the sports and leisure, hospitality and/or retail industry\nExperience with Microsoft Office, databases, point-of-sale software and cash handling\nThe ability to work effectively in a team environment and with minimal supervision.\nYou must hold (or be willing to obtain) a current Police Check and Working with Children Check.\nTo Apply\n\nTennis Australia is committed to providing a safe environment for all tennis participants, including children and young people. It is essential everyone involved with delivering tennis in Australia understands their responsibility in relation to child-safety.\n\nAt Tennis, we embrace differences in gender, age, ethnicity, race, cultural background, disability, religion and sexual orientation. Tennis encourages all suitable applicants to apply for this role\n\nSummaryIf you have a passion for our sport and are looking to join a fun and friendly team, then this role is for you! We are currently seeking casual Customer Service Officers to join our team at Tennis World venue in Darwin.\nLocation\n\nAbala Road, Marrara NT 0812\n\nEmployment StatusCasual\nTeam\n\nTennis\n\nJob Expires24-Nov-2019", "date_posted": " 16 days ago", "Crawl_TimeStamp": "2019-11-10 08:00:00"},
{"Job_Title": "Member Consultant", "Company_Name": "Defence Bank", "Company_Rating": "2.5999999046325684", "No. of Reviews": "8", "Job_Location": "Northern Territory", "Job_Description": "We count on the Defence Force and they count on us. Defence Bank's purpose is to serve those who protect us. The Member Consultant position directly supports our purpose, and ensures our members can count on us, by providing outstanding banking product information, service and support to our members on a 6 month fixed term contract.\n\nWe count on you.\nWorking at our Tindal Branch, you will:\nProactively engage with our members to assist them in achieving their financial goals\nProvide excellent member service and sales while attending to everyday transactional needs\nCross-sell appropriate products and services\nProactively deliver solutions to meet our members needs by utilising both inbound and outbound calls\nThis position works full time hours from Monday to Friday (76 hours per fortnight) offering a base salary of $49,630 per annum plus superannuation and leave loading.\n\n\nWhat you will bring.\nYou will be an experienced professional who is passionate about ensuring the best outcomes are achieved for our members. Ideally you will have prior financial services experience and Tier 2 accreditation however it is not essential. You will have a passion for delivering exceptional member service and delivering sales solutions that meet our member's needs.\n\nYou can count on us.\nIn return, we offer:\nWork life balance\nA genuine focus on optimising processes to drive improved member & employee experience outcomes\nAccess to a broad range of employee benefits including fee-free banking, subsided corporate wardrobe, professional development opportunities, and service recognition rewards.\nHow to serve those that protect us.\n\nDefence Bank is committed to ensuring equal opportunity, fairness of treatment, dignity, and the elimination of all forms of discrimination in the workplace for all employees and job applicants.\n\nWhile we appreciate the great work undertaken by recruitment agencies, we're managing this opportunity in-house.\n\nOnly applicants with the right-to-work in Australia may apply for this position.", "date_posted": " 10 days ago", "Crawl_TimeStamp": "2019-11-10 08:00:00"},
{"Job_Title": "Part Time Team Member | NT", "Company_Name": "Lovisa", "Company_Rating": "3.0999999046325684", "No. of Reviews": "173", "Job_Location": "Palmerston NT", "Job_Description": "Lovisa was born out of a desire to take the fashion accessory market in to a new realm, ultimately inspired by global fashion trends and design. Statement style, intrinsic luxury and refined quality, we are the leading fashion jewellery brand in Australia and New Zealand.\nSince launching our first store in 2010, Lovisa has opened over 400 stores across 15 countries in Europe, Asia and America. As we continue to grow, vast opportunities will arise and are on offer for self-motivated and enthusiastic leaders and Team Members.\nWe are now looking for an enthusiastic and motivated Part Time Stylist to join our team!\n\nWhat we are looking for!Do you love working in a team environment dedicated to offering an exceptional experience to your Customer?Are you motivated and driven to deliver great results?Are you a great communicator and confident in building great relationships?Do you have an eye for fashion and are in the know on all the latest trends?\nThen we would love to talk to you about a becoming a stylist with Lovisa!\n\nTo be successful in this role you will have:The passion to work within a team to deliver great resultsStrong background in retail salesAbility to perform in a fast-paced, high volume retail environment\n- Exceptional communication & customer service skills - Enthusiasm and initiativeA love for fashion and great confidence to style your Customer with any look they want to create!\n\nLovisa will offer :Great opportunities for growth and developmentFantastic discounts and incentivesA culture that is committed to continuous improvementOpportunity to join one of Australia\u2019s fastest and most successful global retail brand!\n\nThe Team Member role is Part Time with week day and weekend work and a variety of hours available.\n\nIf you are seeking a challenging and successful career with exciting opportunities with a brand that embraces a dynamic and passionate culture, then we would love to discuss this opportunity with you!\n\nPlease note, to assist us in getting to know our applicants better, we ask that you upload a 1-2 minute video of yourself as part of the recruitment process. Further information for this video will be detailed in the application process.", "date_posted": " 6 days ago", "Crawl_TimeStamp": "2019-11-10 08:00:01"},
{"Job_Title": "Sales Assistant - Liquorland Casuarina Village", "Company_Name": "Coles", "Company_Rating": "3.799999952316284", "No. of Reviews": "2566", "Job_Location": "Casuarina NT", "Job_Description": "It's our convenience, sense of community and fantastic customer service that people love about shopping at Liquorland. And that's all driven by our passionate team members.\n\nIf you enjoy hearing about people's special occasions and providing great ideas to complement them, a career at Liquorland could be for you.\n\nYou don't necessarily need retail experience, just a genuine interest in creating great moments for our customers by helping them understand and enjoy our products.\n\nYou'll work hard, find smart solutions to any challenges and always wear a smile. Our customers will remember your engaging attitude and willingness to go the extra mile.\n\nIf you're also passionate about building your career, you could find yourself becoming a store manager in less than two years. Our development and training opportunities are specifically designed to help ambitious people every step of the way.\n\nBecause we're all about convenience for our customers, our team members may need to work across weeknights and weekends. The nature of our stock also means you'll have to be physically capable of heavy lifting and staying on your feet for extended periods.\n\nPlease note that an accredited Responsible Service of Alcohol (RSA) certificate is a legal requirement for employment selling liquor in Australia. (In some States this accredited RSA may be State-specific and not the nationally accredited training.)\n\nAt Liquorland, we aim to ensure our team represents the community we serve, embracing the richness of Australia's diverse population.", "date_posted": " 3 days ago", "Crawl_TimeStamp": "2019-11-10 08:00:01"},
{"Job_Title": "Casual Retail Sales Assistant 6-9hrs./ week", "Company_Name": "Spendless Shoes", "Company_Rating": "3.0999999046325684", "No. of Reviews": "92", "Job_Location": "Alice Springs NT 0870", "Job_Description": "Indulge in your passion for fashion!\n\nJoin Australia's most successful footwear retailer\nApprox. 6-9 hrs. per week, including weekends\nFun, fast paced and diverse role!\nStaff discount available\nThis is a great opportunity for a results-orientated and \"hands-on\" person looking to join a fast-growing company.\nABOUT THE ROLE.....\nYour primary role is to ensure your stores\u2019 sales opportunities are maximised. This is achieved by creating a warm, friendly place to shop and always exceeding your customers\u2019 service expectations. You must \u2018WOW\u2019 every customer and make his or her visit to Spendless Shoes an experience to remember.\n\nYour efforts will ensure Spendless Shoes\u2019 ongoing success and achieve our goal of becoming \u201cThe World\u2019s Friendliest Shoe People\u201d.\n\nThe most important people in Spendless Shoes are our Store Sales Team. You are the first point of contact with our most important asset, THE CUSTOMER. You are at the coal face and your behaviour directly affects the success and reputation of our company.\n\nABOUT YOU.....\nYou will be expected to:\nLive Each Day the Spendless Way.\nFollow the 7 non-negotiable Service Standards of customer care.\nMaximisation of sales opportunities by providing legendary customer experiences always.\nDisplay and replenishment of stock.\nStore presentation. Maintain exceptional store presentation.\nAdministration and implementation of company policies and procedures.\nAdditional sales of hand bags, Value Add Products (VAPs) and socks.\n\nThe successful applicant will be a person who displays the following skills and attributes:\nStrong Customer service skills\nThrives on fun at work\nEnjoys fast paced challenging work\nHas the motivation to be successful\nHas outstanding communication skills\nIs dedicated, motivated and friendly\nIs confident and outgoing\nHas a passion for fashion footwear\nHas some experience in a retail environment\nAvailability Thursday- Sunday\nHave a reasonable level of physical fitness to perform strenuous duties on a weekly basis\n\nABOUT SPENDLESS SHOES.....\nFor the past 30 years, millions of happy Australians have chosen Spendless Shoes as their preferred footwear retailer.\nWith over 200 convenient stores, 1,000 amazing team members, and a huge range styles to suit every member of the family, it\u2019s no wonder they call us \u2018The World\u2019s Friendliest Shoe People\u2019.\n\nWhat we can offer you:\nFurther career opportunities\nOpportunities for bonuses\nBenefits of staff purchase discount\nParticipation in product launches\nOpportunity to be part of our fun half yearly Awards evenings\nBenefits of other great incentives!\n\nHOW TO APPLY....\n\nPlease ensure you include a covering letter which states the position and location you are applying for as the first page of your attached resume.\n\nIf you are ready for the next step in your career and want to be part of successful and growing company that genuinely values and rewards its people, we encourage you to apply.\nConfidentiality Assured.\n\nAPPLY NOW!", "date_posted": " 3 days ago", "Crawl_TimeStamp": "2019-11-10 08:00:02"},
{"Job_Title": "NT Alice Springs: Christmas Team Member", "Company_Name": "Sanity Entertainment", "Company_Rating": "3.200000047683716", "No. of Reviews": "65", "Job_Location": "Alice Springs NT", "Job_Description": "NT Alice Springs: Christmas Team Member\nLocation: Alice Springs\nPosted on: 19 September 2019\nAre you ready to join our Sanity Stores as a Christmas Team Member?\nLove Music, Movies, Merchandise?\nCome join us this Christmas!\nWe are looking for Customer focused and result driven individuals that are dedicated to providing exceptional experiences every time.\nThis position requires flexible availability, and includes late nights, weekends and Public holiday shifts.\nIt is expected that you will be available to work throughout the Christmas and New Year period if you are successful in this role.\nYou will possess the following skills and attributes:\nPassion for delivering outstanding Customer experiences every time\nAbility to connect with Customers and confidently sell product\nConfidence to work independently and as a Team\nAbility to multi-task in a fast paced environment\nAttention to detail\nWhat\u2019s in it for you?\nA fun working environment\nLeave entitlements\nTeam discounts\nBonuses and incentives paid to those Team Members who exceed targets\nIf you share the same drive and determination we have to succeed \u2013 Apply Now!\nSanity is committed to Equal Employment Opportunities\n\nIf you are found suitable for the position you will be contacted to arrange a phone interview, if you are however unsuccessful you will receive an email notification.", "date_posted": " 30+ days ago", "Crawl_TimeStamp": "2019-11-10 08:00:02"},
{"Job_Title": "CHRISTMAS CASUAL CUSTOMER ASSISTANT", "Company_Name": "Dusk", "Company_Rating": "3.5", "No. of Reviews": "62", "Job_Location": "Hobart TAS 7000", "Job_Description": "Location: 2 Locations\nPosted on: 26 August 2019\nAn exciting opportunity now exists to join Australia\u2019s largest retailer of candles, home fragrance and home wares this Christmas \u2013 dusk. dusk currently has over 90 stores in Australia and continues to grow. dusk promotes a strong Team culture of excellence, accountability, integrity and having a can-do attitude.\n\nAs a dusk Christmas Customer Assistant, your role is to consistently deliver Customer service excellence, achieve results, be a Team player, a fast stock unpacker and maintain store visual standards.\n\nAs a dusk Christmas Customer Assistant, you are:\nAbout the Customer, always!\nPassionate to exceed our Customer\u2019s expectations EVERY TIME.\nDedicated to being a Team player.\nSelf motivated with a can-do attitude.\nCommitted to continuous improvement.\nEnergetic, positive and ready to have fun!\nAs a dusk Christmas Customer Assistant, you will be carrying out the following:\nConsistently delivering perfect Customer experiences.\nAchieving KPIs.\nExecuting the dusk vision through our products and visual merchandising.\n\nIf you believe you have the skills and drive for this role we would love to hear from you! Ignite your Christmas career today \u2013 Apply now!\nPlease Note: Shifts will not be offered until approximately October 2019.\nThis position is available at:\nDUSK TAS HOBART\n\nShop 5, 96/106 Corner of Liverpool and Murray Street\n\nHobart\n\n7000 TAS", "date_posted": " 30+ days ago", "Crawl_TimeStamp": "2019-11-10 08:00:03"},
{"Job_Title": "Fresh Team Member- Woolworths Deloraine", "Company_Name": "Woolworths Supermarkets", "Company_Rating": "3.799999952316284", "No. of Reviews": "4059", "Job_Location": "Deloraine TAS 7304", "Job_Description": "Fresh Team Member\nFrom meats and cheeses to antipasto, you\u2019ll handle some delicious products.\n\nWoolworths, a job is never just a job.\nIt\u2019s the start of something bigger. There are over 128,000 of us, in the biggest cities and the tiniest towns. And each of us have an important role to play. If you have a passion for great customer service, a hunger to make a tangible difference and you\u2019re looking for a place to develop, you could be who we\u2019re looking for.\n\nWho we are\nJoining Woolworths Supermarkets means being a part of the wider Woolworths Group, which includes the businesses of BWS, Dan Murphy\u2019s, Big W, Cellarmasters, ALH Group and Countdown (NZ). Which means you won\u2019t have one opportunity with us, you\u2019ll have thousands.\n\nWhy work with us\nWhether you\u2019re starting out, already on the way to achieving your goals or at the top of your game, we can help you build a brilliant retail career: If you\u2019ve got goals, we\u2019ve got all you need to succeed. You\u2019ll find over a thousand career options, plus the learning encouragement and support for you to grow. We\u2019re a team that is there for each other. By working alongside people you can learn from, you\u2019ll grow and develop in a fun, supportive environment. Working with a diverse range of people in an industry facing rapid change, you\u2019ll gain real-world experience and grow as a person. Whether it\u2019s making customers smile, supporting Aussie farmers, or playing an important role in your local community, you\u2019ll be doing a little good every day at Woolworths.\n\nWhen you will be needed\n{Roster details to be included here }.\n\nWhat makes you right for Woolies\nThe right attitude is everything....\nGenuine passion for food & shoppingCustomer first mentalityLove of teamwork and growing with othersFlexible and adaptable to changeWilling to work and reliable\nJoining the Group\n\nAs an inclusive, team-first company, our people are at the core of everything we do. As our Group continues to evolve, innovate and support our communities, we encourage our team members to do the same with their own careers, by providing ongoing opportunities to grow and make a real difference.\n\nWoolworths Group is backed by some of Australia\u2019s most recognisable retail businesses, there are always new opportunities on the horizon for all our team members, but most importantly, we\u2019re all about creating better experiences \u2013 for our customers and for each other.\n\nWe value flexibility, and encourage our team members to work in ways that meet their work/life commitments and support their wellbeing. Diversity and inclusion are important to us, and we work to create a vibrant and inclusive workforce that\u2019s reflective of the communities we\u2019re in.\n\nLearn more about working with us on LinkedIn or via www.wowcareers.com.au.", "date_posted": " Just posted", "Crawl_TimeStamp": "2019-11-10 08:00:03"},
{"Job_Title": "Team Member \u2013 Coles Kingston", "Company_Name": "Coles", "Company_Rating": "3.799999952316284", "No. of Reviews": "2566", "Job_Location": "Kingston TAS", "Job_Description": "As one of the country\u2019s most trusted retailers, Coles sustainably feeds all Australians to help them live happier, healthier lives.\n\nWith great opportunities across multiple departments, you will create an outstanding shopping experience for our customers. You will showcase your excellent presentation and display skills, ensure stock is available, and help our customers find what they need.\n\nWhat it takes:\n\nA passion and attitude for providing an outstanding customer experience\nKnow your stuff, as the go-to person for customer queries\nThis is an active role, so you will be on your feet for long periods of time, and may require some moderate lifting and reaching\nAvailability to work flexible hours across our store trading days including early mornings, evenings and weekends\nWhy join the Coles Team?\n\nAt Coles, we are all about our people. So, we need the best talent to join us to inspire customers through best value food and drink solutions to make lives easier. Be part of a fun and inclusive culture where you can learn and develop your skills through our excellent ongoing training and development. You will also receive a team member discount and exclusive team member offers.\n\nCulture\n\nAt Coles, we know we are at our best when our team is representative of the communities we serve and are proud of our commitment to providing supportive work environments for all team members. We actively encourage applications from all candidates, including the LGBTI community, Aboriginal and Torres Strait Islander peoples and people with disabilities.", "date_posted": " 2 days ago", "Crawl_TimeStamp": "2019-11-10 08:00:03"},
{"Job_Title": "Tomato Harvester - Turner Beach", "Company_Name": "Agri Labour Australia Pty Ltd", "Company_Rating": "4.5", "No. of Reviews": "11", "Job_Location": "Devonport TAS", "Job_Description": "The Benefits\nStart: ASAP\nNegotiable\nDuration: 6 Months\nUncapped earning potential\nLong term stable job\n10-15 hours per week\nJob Description\nOur client is looking for tomato pickers to join their established and hardworking team. Located at Turner Beach this is a reputable farm providing a long-term casual work opportunity suitable for someone with a great attitude, looking to build new skills.\nRole & Responsibilities\nWorking in a glass house environment you will be responsible for the manual harvesting of a variety of different Tomatoes. Paid by piece rate this job provides an uncapped earning potential with all necessary training provided to ensure your success in this role.\nThe successful candidate must be self-motivated and able to take direction. Working 10-15 hours per week you must be available to work weekly on Mondays and Thursdays (subject to change).\nDuties include but are not limited to the following:\nManual harvesting of tomatoes\nStanding for long periods\nManual handling: lift 10-12 kgs\nOther duties as requested\nYour Skills & Experience\nTo be successful, it is important you fit well within the existing team. The job requires someone who learns quickly and is committed to ensuring a culture of safety for yourself and others.\nTo be considered for the position, it's important you meet the following criteria:\nShow initiative and work unsupervised\nAble to stand for long periods of time\nPhysically fit to lift 10-12kg\nAble to follow instructions\nA team player\nEasily follow instructions relating to tasks and hygiene\nAvailable to attend work Mondays and Thursdays\nIf you believe you're a great fit for the role, click 'Apply Now' and forward us your most up to date resume. Due to the large volume of applications, only successful applicants will be contacted", "date_posted": " 30+ days ago", "Crawl_TimeStamp": "2019-11-10 08:00:05"},
{"Job_Title": "In-Store Team Member", "Company_Name": "Domino's", "Company_Rating": "3.5999999046325684", "No. of Reviews": "22102", "Job_Location": "Palmerston NT", "Job_Description": "Customer Service responsibilities:\nMeet & greet customers on the phone and in person.\nDealing with customer concerns.\nUpselling.\nProcessing payments: cash and EFTPOS.\n\nPizza Maker responsibilities:\n\nPreparing a variety of pizzas and other food items.\nHygiene and food safety.\nGeneral cleaning duties.", "date_posted": " 30+ days ago", "Crawl_TimeStamp": "2019-11-10 08:00:05"},
{"Job_Title": "Darwin - CHRISTMAS CASUALS", "Company_Name": "Adairs", "Company_Rating": "3.0999999046325684", "No. of Reviews": "39", "Job_Location": "Darwin NT", "Job_Description": "Adairs is a leading homeware and linen retailer, where you can be guaranteed to be a part of an innovative market leader. With over 170 stores across Australia and New Zealand, we believe in rewarding positive results; we value passion, collaboration, and persistence. Take this opportunity to come on our journey!\n Who are we looking for?\nAre you a retail savvy individual who is driven by creating the ultimate customer centric experience?\nWould you be inspired by the opportunity to work with our stunning range of home and lifestyle products with the added advantage of being supported by an awesome team working towards a common goal?\nThis role will be commencing mid October 2019 through to February 2020. Availability will be required across weekends, weekdays and some evenings, as well as Christmas Eve and Boxing Day.\nIdeally you:\nHave previously worked in retail and have an appreciation for the importance of the customer experience.\nExcel in a fast paced and energetic environment.\nThink & adapt quickly.\nBe able to instantly engage with both your customers and your colleagues.\nDemonstrated ability in achieving and/or exceeding targets and KPI\u2019s.\nIn return we offer:\nThe opportunity to be a part of one of the nation\u2019s best home and lifestyle retailers.\nAn inclusive and diverse culture that has been built on mutual respect and collaboration.\nDiscounts and benefits.\nOn the job training and support, as well as a comprehensive induction program.\nPotential for ongoing employment and career progression.\nWe are passionate about our brand, if you are too, join us and be a part of our journey!", "date_posted": " 30+ days ago", "Crawl_TimeStamp": "2019-11-10 08:00:06"},
{"Job_Title": "F&B Attendant | Sounds of Silence", "Company_Name": "Voyages Indigenous Tourism Australia", "Company_Rating": "3.5999999046325684", "No. of Reviews": "18", "Job_Location": "Yulara NT", "Job_Description": "\"Whatever you do today make sure you take the time to consider your career and the once in a lifetime opportunity to live and work in Australia\u2019s iconic red centre...\"\n\nVoyages Indigenous Tourism Australia is a unique Australian travel company wholly owned by the Indigenous Land Corporation (ILC) offering experience-based holidays in spectacular wilderness locations including Ayers Rock Resort in the iconic Red Centre, Home Valley Station in the Kimberley region of Western Australia and tourism facilities at Mossman Gorge in Tropical North Queensland.\n\nWith four individually branded hotel and apartment complexes across Ayers Rock Resort we offer both our guests and employees a multitude of world class accommodation options.\nThe Ayers Rock Resort complex also includes the Australian Tourism Award winning, Uluru Meeting Place, a campground, the Red Ochre Spa, the award winning Sounds of Silence (entered into the Australian Tourism Hall of Fame) as well as 15 independently branded food and beverage outlets.\n\nWith over 15 individually branded Restaurants and Bars across the resort we offer both our guests and employees an enviable collection of world class dining options. It\u2019s here we offer the ultimate and most unique dining experience in the world, the award winning Sounds of Silence where guests dine under a canopy of stars in the desert under the shadow of Uluru.\nEntered into the Australian Tourism Hall of Fame, Sounds of Silence offers our guests four magical hours combining sparkling wine and sunset canap\u00e9s in front of Uluru and the domes of Kata Tjuta, followed by an outback BBQ buffet of authentic Australian delicacies including barramundi, kangaroo and crocodile, bush salads and classic desserts, complemented by Australian wines. The evening ends with what is reputed to be some of the world's best stargazing, as our dedicated star talker takes our guests on a tour of the spectacular southern night sky.\n\nAs a Food and Beverage Attendant within the Sounds of Silence team, you will be responsible not just for the service of food and drink but for bringing this experience to life, engaging with our guests and of course providing true Outback hospitality. Your role will also include the set up and breakdown of the Sounds of Silence site situated a short drive away from the main resort.\nTo be a successful candidate you will:\nBe a passionate and hardworking individual, with an enthusiastic and mature personality\nA background within Event Catering, Banqueting or Food and Beverage service is essential\nA solid understanding of Food and Wine will be highly advantageous but not essential, as is experience of working in a remotely operated resort\nA passion for working in the outdoors\nImmaculate grooming and presentation\nDue to the nature of these roles you will need a full Australian Manual Driving Licence and be prepared to lift, carry and set up our catering equipment\nA National Police Check is a mandatory step of the recruitment process.\n\nVoyages vision is to offer our visitors a genuine Indigenous experience while making a real difference for Indigenous communities through employment, development and business opportunities in tourism.\n\n\"Don't wait for tomorrow, discover today...\"\n\nAboriginal and Torres Strait Islander applicants are encouraged to apply.\n\n\nJob: Sounds of Silence\n\nPrimary Location: Sails in the Desert", "date_posted": " 5 days ago", "Crawl_TimeStamp": "2019-11-10 08:00:07"},
{"Job_Title": "Casual Sales Consultant", "Company_Name": "Betts Group", "Company_Rating": "3.0999999046325684", "No. of Reviews": "36", "Job_Location": "Casuarina NT", "Job_Description": "Who we are:\nOne of the most iconic fashion brands in Australia, at Betts we know that nothing completes a look more perfectly than the right pair of shoes, and we know shoes - we\u2019ve been making them since 1892!\nWe are passionate about providing great quality, on-trend shoes and handbags at the best prices and are committed to creating inspiring collections, giving our customers the perfect shoes to step out in style. With over 125 years of shoe making expertise, our passion, knowledge and skill go into every collection.\nWith the original family values still at the heart of the business, Betts continues to run as a family business and we now have over 90 stores Australia-wide.\nThe Role:\nWe pride ourselves on our people and their ability to deliver a fantastic customer experience. Our customers can count on exceptional customer service, styling advice and a memorable shopping experience every time.\nIf you love your shoes the same way we do, and can demonstrate the following; then we want to hear from you!\nPrevious experience in retail is desirable.\nProven ability to exceed sales and KPI targets is desirable.\nStrong team player and a 'can do' attitude.\nExcellent communication, conversational and interpersonal skills.\nExceptional grooming and presentation standards.\nIn return, we will reward the successful applicant with:\nVery generous product discounts to indulge in your love of shoes (discounts for your family &friends too!)\nTraining opportunities, as well as ongoing career support.\nIf you are excited about developing your career in retail, take a step in the right direction towards a career with Betts Group!\n\n(Please ensure all files are uploaded in PDF format: To create a PDF from a Word document, click 'save as' and in the 'save as type' drop down box, choose PDF)", "date_posted": " 30+ days ago", "Crawl_TimeStamp": "2019-11-10 08:00:07"},
{"Job_Title": "Utility", "Company_Name": "Sodexo", "Company_Rating": "3.700000047683716", "No. of Reviews": "13896", "Job_Location": "Jabiru NT 0886", "Job_Description": "Job Description\n\nSodexo is currently seeking a FT Utility to work in the ERA Village in Jabiru NT.\nThis is a Local Hire\u2019 role, all candidates must either currently live or in the process of relocating to Jabiru and surrounding areas.\nAbout the job\nReporting to the Village Manager, you will have excellent customer service skills and experience in laundry, kitchen hand, dining room, housekeeping or cleaning in a commercial or hospitality environment.\n\nAbout you\nIt is a requirement of this role to possess a current manual licence coupled with a positive can-do attitude. You will have a readiness to commit to working various shifts working on weekdays or if required on the weekends. It is essential that you are confident and flexible to complete tasks as required in housekeeping, laundry, dining room or kitchen. Previous work experience in mine sites or resorts is highly regarded. You must have strong safety awareness and safe work ethic, as well as an exposure to and understanding of chemicals safety.\nWhat\u2019s next\nIf this sounds like the right job for you click on \u201cI\u2019m Interested\u201d and complete our 5-minute application process.\nHelp create a home away from home\nSodexo provides a range of services at remote locations across Australia, servicing both on-shore and off-shore sites, in difficult and challenging environments. At Sodexo, our Energy & Resources sector serves four global markets: Mining, Offshore & Marine, Onshore Energy, and Engineering & Construction Projects. Our growing team of employees is dedicated to improving productivity, building meaningful client relationships, reducing on-site problems and improving quality of life for the thousands of Australians who call our remote sites home.\n\nQualifications\n\nnull\n\nAdditional Information\n\nSodexo is a contract services company and employment is conditional to Sodexo\u2019s ability to maintain the client contract and its service levels. All employees are subject to a police check and a Working with Children check (where applicable)", "date_posted": " 2 days ago", "Crawl_TimeStamp": "2019-11-10 08:00:07"}
]